<?xml version="1.0" encoding="UTF-8" standalone="no"?>
<!-- Created with Inkscape (http://www.inkscape.org/) -->

<svg
   xmlns:dc="http://purl.org/dc/elements/1.1/"
   xmlns:cc="http://creativecommons.org/ns#"
   xmlns:rdf="http://www.w3.org/1999/02/22-rdf-syntax-ns#"
   xmlns:svg="http://www.w3.org/2000/svg"
   xmlns="http://www.w3.org/2000/svg"
   xmlns:xlink="http://www.w3.org/1999/xlink"
   xmlns:sodipodi="http://sodipodi.sourceforge.net/DTD/sodipodi-0.dtd"
   xmlns:inkscape="http://www.inkscape.org/namespaces/inkscape"
   sodipodi:docname="server-robot2.svg"
   inkscape:version="0.91 r13725"
   version="1.1"
   id="svg4286"
   height="1052.3622047"
   width="744.09448819">
  <sodipodi:namedview
     inkscape:window-maximized="1"
     inkscape:window-y="-8"
     inkscape:window-x="1272"
     inkscape:window-height="1017"
     inkscape:window-width="1920"
     showgrid="false"
     inkscape:current-layer="layer1"
     inkscape:document-units="px"
     inkscape:cy="652.11474"
     inkscape:cx="355.81"
     inkscape:zoom="0.98994949"
     inkscape:pageshadow="2"
     inkscape:pageopacity="0.0"
     borderopacity="1.0"
     bordercolor="#666666"
     pagecolor="#ffffff"
     id="base"
     inkscape:snap-page="true" />
  <defs
     id="defs4288">
    <inkscape:path-effect
       effect="powerstroke"
       id="path-effect23982"
       is_visible="true"
       offset_points="0.012470598,16.215216"
       sort_points="true"
       interpolator_type="Linear"
       interpolator_beta="0.2"
       start_linecap_type="zerowidth"
       linejoin_type="round"
       miter_limit="4"
       end_linecap_type="zerowidth"
       cusp_linecap_type="round" />
    <inkscape:path-effect
       effect="powerstroke"
       id="path-effect23968"
       is_visible="true"
       offset_points="0,23.357673"
       sort_points="true"
       interpolator_type="Linear"
       interpolator_beta="0.17808219"
       start_linecap_type="zerowidth"
       linejoin_type="round"
       miter_limit="4"
       end_linecap_type="zerowidth"
       cusp_linecap_type="round" />
    <inkscape:path-effect
       effect="powerstroke"
       id="path-effect23964"
       is_visible="true"
       offset_points="1.9821439,7.3491372"
       sort_points="true"
       interpolator_type="Linear"
       interpolator_beta="0.2"
       start_linecap_type="zerowidth"
       linejoin_type="round"
       miter_limit="4"
       end_linecap_type="zerowidth"
       cusp_linecap_type="round" />
    <inkscape:path-effect
       effect="powerstroke"
       id="path-effect23960"
       is_visible="true"
       offset_points="0.0095666235,-16.645035"
       sort_points="true"
       interpolator_type="Linear"
       interpolator_beta="0.2"
       start_linecap_type="zerowidth"
       linejoin_type="round"
       miter_limit="4"
       end_linecap_type="zerowidth"
       cusp_linecap_type="round" />
    <inkscape:path-effect
       effect="powerstroke"
       id="path-effect23790"
       is_visible="true"
       offset_points="0,0.5"
       sort_points="true"
       interpolator_type="CubicBezierJohan"
       interpolator_beta="0.2"
       start_linecap_type="zerowidth"
       linejoin_type="round"
       miter_limit="4"
       end_linecap_type="zerowidth"
       cusp_linecap_type="round" />
    <linearGradient
       inkscape:collect="always"
       id="linearGradient23778">
      <stop
         style="stop-color:#4d4d4d;stop-opacity:1;"
         offset="0"
         id="stop23780" />
      <stop
         style="stop-color:#797979;stop-opacity:1"
         offset="1"
         id="stop23782" />
    </linearGradient>
    <inkscape:path-effect
       effect="powerstroke"
       id="path-effect17698"
       is_visible="true"
       offset_points="0,0.5"
       sort_points="true"
       interpolator_type="CubicBezierJohan"
       interpolator_beta="0.2"
       start_linecap_type="zerowidth"
       linejoin_type="round"
       miter_limit="4"
       end_linecap_type="zerowidth"
       cusp_linecap_type="round" />
    <inkscape:path-effect
       effect="powerstroke"
       id="path-effect17676"
       is_visible="true"
       offset_points="0,0.5"
       sort_points="true"
       interpolator_type="CubicBezierJohan"
       interpolator_beta="0.2"
       start_linecap_type="zerowidth"
       linejoin_type="round"
       miter_limit="4"
       end_linecap_type="zerowidth"
       cusp_linecap_type="round" />
    <inkscape:path-effect
       cusp_linecap_type="round"
       end_linecap_type="zerowidth"
       miter_limit="4"
       linejoin_type="round"
       start_linecap_type="zerowidth"
       interpolator_beta="0.2"
       interpolator_type="CubicBezierJohan"
       sort_points="true"
       offset_points="0,0.5"
       is_visible="true"
       id="path-effect8258"
       effect="powerstroke" />
    <inkscape:path-effect
       effect="powerstroke"
       id="path-effect8102"
       is_visible="true"
       offset_points="0,0.5"
       sort_points="true"
       interpolator_type="CubicBezierJohan"
       interpolator_beta="0.2"
       start_linecap_type="zerowidth"
       linejoin_type="round"
       miter_limit="4"
       end_linecap_type="zerowidth"
       cusp_linecap_type="round" />
    <inkscape:path-effect
       effect="skeletal"
       id="path-effect4997"
       is_visible="true"
       pattern="m -30.28355,3.1530096 0,10.0000004 10,-5.0000004 z"
       copytype="single_stretched"
       prop_scale="1"
       scale_y_rel="false"
       spacing="0"
       normal_offset="0"
       tang_offset="0"
       prop_units="false"
       vertical_pattern="false"
       fuse_tolerance="0" />
    <inkscape:path-effect
       effect="skeletal"
       id="path-effect4898"
       is_visible="true"
       pattern="M 0,0 0,10 10,5 z"
       copytype="single_stretched"
       prop_scale="1"
       scale_y_rel="false"
       spacing="0"
       normal_offset="0"
       tang_offset="0"
       prop_units="false"
       vertical_pattern="false"
       fuse_tolerance="0" />
    <inkscape:path-effect
       effect="skeletal"
       id="path-effect4894"
       is_visible="true"
       pattern="M 0,0 0,10 10,5 z"
       copytype="single_stretched"
       prop_scale="1"
       scale_y_rel="false"
       spacing="0"
       normal_offset="0"
       tang_offset="0"
       prop_units="false"
       vertical_pattern="false"
       fuse_tolerance="0" />
    <inkscape:path-effect
       effect="skeletal"
       id="path-effect4890"
       is_visible="true"
       pattern="M 0,0 0,10 10,5 z"
       copytype="single_stretched"
       prop_scale="1"
       scale_y_rel="false"
       spacing="0"
       normal_offset="0"
       tang_offset="0"
       prop_units="false"
       vertical_pattern="false"
       fuse_tolerance="0" />
    <linearGradient
       id="linearGradient3606"
       y2="-112"
       gradientUnits="userSpaceOnUse"
       x2="-80"
       gradientTransform="translate(2,922.36)"
       y1="123"
       x1="105"
       inkscape:collect="always">
      <stop
         id="stop3602"
         style="stop-color:#e6e6e6"
         offset="0" />
      <stop
         id="stop3604"
         style="stop-color:#f9f9f9"
         offset="1" />
    </linearGradient>
    <linearGradient
       id="linearGradient3614"
       y2="957.35999"
       gradientUnits="userSpaceOnUse"
       x2="80"
       gradientTransform="translate(463.78948,-821.38129)"
       y1="944.35999"
       x1="93"
       inkscape:collect="always">
      <stop
         id="stop3610"
         style="stop-color:#cccccc"
         offset="0" />
      <stop
         id="stop3616"
         style="stop-color:#e6e6e6"
         offset=".22008" />
      <stop
         id="stop3618"
         style="stop-color:#ffffff"
         offset=".46933" />
      <stop
         id="stop3612"
         style="stop-color:#e6e6e6"
         offset="1" />
    </linearGradient>
    <linearGradient
       inkscape:collect="always"
       xlink:href="#linearGradient3606"
       id="linearGradient22306"
       gradientUnits="userSpaceOnUse"
       gradientTransform="translate(463.78948,102.97871)"
       x1="105"
       y1="123"
       x2="-80"
       y2="-112" />
    <linearGradient
       inkscape:collect="always"
       xlink:href="#linearGradient3614"
       id="linearGradient22308"
       gradientUnits="userSpaceOnUse"
       gradientTransform="translate(463.78948,-821.38129)"
       x1="93"
       y1="944.35999"
       x2="80"
       y2="957.35999" />
    <linearGradient
       inkscape:collect="always"
       xlink:href="#linearGradient23778"
       id="linearGradient23786"
       x1="374.64288"
       y1="608.07648"
       x2="373.21429"
       y2="583.79077"
       gradientUnits="userSpaceOnUse"
       gradientTransform="matrix(0.73864281,0,0,0.96891783,54.858875,17.667826)" />
  </defs>
  <metadata
     id="metadata4291">
    <rdf:RDF>
      <cc:Work
         rdf:about="">
        <dc:format>image/svg+xml</dc:format>
        <dc:type
           rdf:resource="http://purl.org/dc/dcmitype/StillImage" />
        <dc:title></dc:title>
      </cc:Work>
    </rdf:RDF>
  </metadata>
  <g
     inkscape:label="Layer 1"
     inkscape:groupmode="layer"
     id="layer1">
    <g
       id="g10"
       class="Graphic"
       transform="matrix(0.09659138,0,0,0.09659138,-163.46008,-138.84068)">
      <g
         id="g12">
        <g
           id="g14"
           style="fill:#c7c7c7">
          <path
             inkscape:connector-curvature="0"
             id="path16"
             d="m 5903,2361 c 50,82 34,3995 -31,4149 -51,122 -1703,1495 -1789,1531 -1117,-7 -1870,-414 -1995,-629 -48,-270 -7,-4433 38,-4520 40,-76 2153,-833 2227,-851 67,-15 1493,229 1550,320 z" />
        </g>
        <g
           id="g18"
           style="fill:#000000">
          <path
             inkscape:connector-curvature="0"
             id="path20"
             d="m 5881,2374 2,-1 -2,2 c 0,-1 -1,-1 -1,-1 l 0,-2 7,-3 -2,2 -5,1 5,-1 -2,2 -2,1 z m 2,-1 2,-2 2,-2 5,-2 -5,4 5,-4 1,0 -6,3 0,1 0,-1 -4,3 z m 10,-6 -1,0 1,0 -1,0 11,-6 -10,5 0,1 z m 11,-4 -11,4 0,-1 11,-3 z m 20,-15 c -2,-3 -4,-6 -7,-9 -2,-3 -5,-5 -8,-7 -5,-4 -12,-8 -20,-12 -7,-4 -15,-7 -24,-11 -9,-4 -19,-7 -30,-11 -21,-8 -47,-16 -75,-24 -29,-8 -61,-16 -95,-25 -136,-34 -313,-72 -494,-106 -181,-35 -364,-66 -511,-90 -73,-11 -138,-21 -189,-27 -25,-3 -47,-6 -65,-8 -9,-1 -17,-1 -24,-2 -4,0 -7,0 -10,-1 l -9,0 c -3,0 -5,0 -7,1 l -4,0 c -2,0 -3,0 -4,1 -2,0 -4,1 -7,2 -2,0 -5,1 -8,2 -3,1 -7,2 -11,3 -4,2 -8,3 -13,5 -10,3 -22,7 -35,12 -13,4 -28,9 -44,15 -33,11 -71,25 -115,40 -43,15 -91,32 -144,51 -209,75 -481,173 -753,274 -271,101 -542,203 -747,285 -51,21 -98,40 -140,57 -43,18 -80,34 -111,48 -16,7 -30,14 -42,20 -13,6 -24,12 -33,17 -5,2 -9,5 -13,7 -4,3 -8,5 -10,7 -4,3 -7,5 -9,7 -5,4 -7,8 -9,11 -1,2 -2,5 -4,9 0,3 -1,6 -1,9 -1,3 -1,7 -2,11 -1,4 -1,8 -2,13 0,9 -1,20 -3,32 0,13 -1,27 -2,42 -2,31 -4,69 -6,111 -2,43 -4,91 -5,144 -7,213 -14,504 -19,835 -11,662 -19,1482 -19,2144 0,308 2,583 5,791 1,52 2,100 3,143 1,43 3,82 4,115 1,34 3,62 4,85 1,12 2,22 3,30 1,5 1,9 1,13 1,3 2,7 2,10 l 1,4 2,4 c 9,15 20,30 33,46 14,16 30,32 48,49 35,32 80,66 135,101 107,70 249,142 423,207 173,65 377,124 608,167 231,43 489,70 769,72 l 6,0 5,-2 8,-4 c 2,-2 5,-3 8,-6 3,-2 6,-4 10,-6 l 12,-9 c 9,-6 19,-13 30,-22 11,-8 23,-17 37,-28 27,-20 58,-45 93,-73 35,-28 74,-59 116,-93 169,-136 385,-315 600,-497 215,-181 430,-366 593,-512 41,-37 79,-71 113,-103 34,-31 64,-59 89,-84 13,-13 24,-24 34,-35 11,-11 20,-20 28,-29 8,-9 14,-17 19,-23 3,-4 5,-8 7,-10 2,-4 4,-8 6,-11 0,-2 1,-5 2,-8 1,-3 2,-5 3,-9 1,-6 2,-13 3,-22 2,-8 3,-17 4,-28 1,-11 2,-22 3,-35 2,-25 4,-55 7,-89 1,-34 3,-72 5,-113 8,-166 14,-391 19,-648 10,-516 16,-1164 16,-1743 0,-389 -3,-747 -8,-1012 -1,-66 -2,-127 -4,-181 -1,-53 -3,-100 -5,-139 -1,-20 -2,-38 -3,-53 -1,-16 -2,-30 -3,-41 -1,-6 -1,-11 -2,-16 -1,-5 -1,-10 -2,-13 -1,-4 -1,-8 -2,-11 -1,-2 -1,-4 -2,-5 -1,-3 -2,-5 -3,-6 z m -37,21 12,-12 -12,12 z m -6,9 c 1,3 1,7 2,11 0,4 1,9 1,15 1,11 3,24 4,39 0,15 1,33 2,52 2,39 4,86 6,139 1,53 2,114 4,180 5,264 7,622 7,1011 0,578 -5,1227 -15,1742 -6,257 -12,481 -19,646 -2,42 -4,79 -6,113 -2,33 -4,63 -6,88 -1,12 -2,24 -4,34 0,10 -2,18 -3,26 -1,7 -2,14 -3,18 0,3 -1,4 -1,6 0,1 -1,2 -1,2 0,1 -1,2 -2,4 -1,1 -3,4 -4,6 -5,6 -10,13 -17,21 -7,7 -16,17 -26,27 l -34,34 c -25,24 -54,52 -88,83 -33,31 -71,66 -112,102 -163,146 -377,330 -592,512 -215,181 -431,360 -598,495 -42,34 -81,65 -116,93 -35,28 -66,52 -93,73 -13,10 -26,20 -37,28 -10,8 -20,15 -28,21 -4,3 -8,6 -12,8 -3,2 -6,4 -8,6 -2,1 -4,2 -5,3 -276,-2 -528,-29 -755,-71 -228,-42 -429,-100 -600,-164 -169,-64 -308,-134 -413,-202 -51,-33 -94,-66 -128,-97 -17,-15 -31,-30 -43,-44 -10,-12 -19,-23 -26,-34 l 0,-4 c -1,-3 -1,-7 -1,-11 -1,-8 -2,-18 -3,-28 -2,-23 -3,-51 -5,-84 -1,-33 -2,-71 -3,-115 -1,-42 -2,-90 -3,-142 -3,-208 -5,-482 -5,-790 0,-662 7,-1481 18,-2143 6,-330 12,-622 19,-834 2,-53 4,-101 6,-144 2,-42 3,-79 5,-109 1,-16 2,-30 3,-42 1,-12 2,-22 3,-31 0,-4 1,-8 1,-11 1,-4 1,-6 2,-9 l 0,-2 c 0,-1 1,-1 2,-2 2,-1 4,-3 7,-5 4,-1 7,-4 11,-6 9,-5 19,-10 31,-16 12,-6 26,-12 41,-19 31,-14 67,-29 109,-47 42,-17 89,-37 140,-57 205,-82 475,-184 746,-284 271,-101 543,-200 752,-274 52,-19 101,-36 144,-51 43,-16 82,-29 114,-40 17,-6 31,-11 44,-16 13,-4 25,-8 35,-11 4,-2 9,-3 13,-4 4,-2 7,-3 10,-4 3,-1 5,-1 8,-2 l 3,-1 -2,-8 1,8 1,0 4,0 7,0 c 2,0 5,0 8,1 7,0 14,1 23,2 17,1 39,4 64,7 50,6 114,16 187,27 147,23 329,55 509,89 180,35 357,72 492,106 34,9 65,17 92,25 28,8 53,15 73,23 10,3 20,7 28,10 7,3 15,6 20,9 5,3 10,5 13,8 0,0 1,0 1,1 0,1 1,3 1,4 z M 4075,8017 c 1,0 1,-1 2,-1 l 6,0 0,14 -8,-13 8,13 0,11 -10,-23 c 0,0 1,-1 2,-1 z M 2110,7400 c 1,1 1,3 2,4 1,1 1,3 1,4 l -25,4 21,-11 1,-1 -1,1 1,-1 2,0 -2,0 z m 39,-4498 0,3 c -1,0 -1,1 -2,1 l -5,-6 -17,-4 17,4 -2,-1 4,2 5,1 z m -7,-2 2,1 -2,-1 z m -16,-8 14,7 -14,-7 z m 14,7 -10,-11 10,11 z m 2217,-841 -2,-17 2,17 z m -4,-17 4,17 0,1 -4,-18 z" />
        </g>
        <g
           id="g22"
           style="fill:#ffffff;fill-opacity:0.54118;stroke:#ffffff;stroke-opacity:0.54118">
          <path
             inkscape:connector-curvature="0"
             id="path24"
             d="m 5822,2442 -52,22 -52,23 -52,23 -53,25 -53,25 -53,26 -53,26 -54,27 -54,27 -54,28 -55,28 -54,29 -55,29 -55,29 -111,60 -112,60 -112,60 -113,61 -114,60 -114,60 -114,59 -57,29 -57,29 -58,28 -57,28 -27,-6 -28,-7 -56,-13 -58,-14 -59,-13 -60,-14 -61,-14 -61,-14 -63,-14 -62,-14 -63,-15 -127,-28 -127,-28 -64,-14 -63,-14 -62,-13 -62,-13 -61,-13 -60,-13 -60,-13 -58,-12 -57,-12 -28,-5 -28,-6 -27,-5 -27,-6 -27,-5 -26,-5 -26,-5 -25,-6 -25,-4 -24,-5 -24,-5 -24,-4 -23,-4 -22,-5 -22,-4 -21,-3 -21,-4 -20,-4 52,16 52,16 53,16 54,15 55,16 55,15 57,16 56,15 57,16 58,15 116,31 117,30 118,31 118,31 117,30 116,31 58,15 57,16 57,15 56,16 55,15 55,16 54,15 53,16 52,16 52,16 1,60 2,61 1,61 1,63 1,64 2,64 1,65 1,66 1,67 1,67 1,68 0,69 1,69 1,70 1,70 0,71 1,71 0,72 1,72 1,73 1,146 1,147 0,149 1,149 2,299 1,300 1,149 1,148 1,147 1,146 1,73 0,72 1,72 1,71 0,71 1,71 1,69 1,70 0,68 1,68 1,67 1,67 1,66 1,65 1,65 2,63 1,63 1,62 2,61 1,60 1,-61 1,-61 0,-63 1,-63 1,-64 1,-65 1,-66 1,-67 1,-67 1,-68 1,-69 2,-69 1,-70 1,-71 1,-71 1,-72 1,-72 2,-73 1,-73 1,-73 3,-148 3,-149 2,-151 3,-151 6,-303 5,-303 3,-151 3,-150 2,-149 3,-149 1,-73 2,-73 1,-73 1,-72 1,-71 1,-72 1,-70 2,-70 1,-70 1,-68 1,-68 1,-68 1,-66 1,-66 1,-65 1,-64 1,-64 0,-62 1,-62 1,-60 110,-59 109,-59 109,-57 109,-58 108,-57 107,-58 107,-57 107,-58 105,-58 105,-58 104,-60 103,-60 51,-30 50,-31 51,-31 50,-31 50,-31 50,-32 49,-32 50,-32 z" />
        </g>
        <g
           id="g28"
           style="fill:none">
          <path
             inkscape:connector-curvature="0"
             id="path30"
             d="m 5822,2442 c -549,232 -1156,606 -1768,901 -580,-138 -1417,-322 -1839,-396 543,169 1257,327 1800,496 32,1271 16,3196 48,4467 16,-1282 59,-3238 75,-4519 586,-317 1161,-601 1684,-949 z" />
        </g>
        <g
           id="g32"
           style="fill:#000000;fill-opacity:0.16078001;stroke:#ffffff;stroke-opacity:0.16078001">
          <path
             inkscape:connector-curvature="0"
             id="path34"
             d="m 2420,6628 10,14 10,13 11,13 12,13 12,12 12,12 14,12 13,12 14,12 15,11 15,11 16,11 15,11 17,10 16,10 17,11 18,9 18,10 18,9 18,8 19,9 19,8 19,8 19,8 40,15 40,14 41,12 41,11 42,10 41,9 42,8 41,6 41,6 41,3 21,2 20,1 19,1 20,0 20,0 19,0 19,-1 19,-1 18,-1 19,-1 17,-2 18,-3 17,-2 17,-3 17,-4 16,-4 15,-4 15,-4 15,-5 15,-5 -2,-1 -1,0 -5,-2 -6,-1 -7,-2 -8,-2 -10,-3 -10,-3 -12,-3 -13,-4 -14,-3 -15,-4 -16,-5 -16,-4 -18,-5 -18,-5 -19,-5 -20,-6 -20,-5 -21,-6 -22,-6 -22,-6 -22,-6 -23,-7 -24,-6 -48,-13 -49,-14 -50,-14 -50,-13 -50,-15 -50,-13 -49,-14 -49,-13 -23,-7 -24,-6 -23,-7 -22,-6 -22,-6 -21,-6 -21,-6 -20,-5 -19,-6 -19,-5 -18,-5 -17,-5 -16,-4 -15,-5 -15,-4 -13,-4 -12,-3 -12,-3 -10,-3 -9,-3 -7,-2 -7,-2 -5,-2 -2,0 -2,-1 z" />
        </g>
        <g
           id="g38"
           style="fill:none">
          <path
             inkscape:connector-curvature="0"
             id="path40"
             d="m 2420,6628 c 201,289 833,431 1133,315 -53,-14 -1066,-293 -1133,-315 z" />
        </g>
        <g
           id="g42"
           style="fill:#ffffff;fill-opacity:0.38824002;stroke:#ffffff;stroke-opacity:0.38824002">
          <path
             inkscape:connector-curvature="0"
             id="path44"
             d="m 3454,6093 -936,-361 -9,4 -8,4 -8,4 -6,5 -6,6 -6,6 -5,7 -5,6 -4,7 -4,7 -3,7 -3,8 -3,8 -2,7 -3,15 -2,15 -2,14 0,6 0,7 0,5 0,6 0,5 0,4 0,4 1,4 0,2 0,2 0,1 0,1 146,51 1,1 1,1 1,1 1,2 2,2 1,3 3,3 2,3 3,4 3,4 3,4 4,5 4,4 4,6 5,4 10,12 10,11 13,12 13,12 14,13 15,12 17,13 17,12 19,12 19,11 21,11 22,10 11,4 11,5 12,4 12,4 13,3 12,3 13,3 13,3 13,2 13,1 14,2 14,1 14,0 15,0 15,0 15,-1 15,-2 15,-2 16,-2 16,-3 16,-4 16,-4 17,-5 17,-6 1,0 2,1 3,0 6,1 6,1 7,1 8,1 9,1 10,1 11,1 12,1 12,1 12,0 13,1 26,0 14,-1 13,-1 14,-1 13,-2 13,-2 12,-3 12,-3 12,-3 10,-5 11,-5 9,-6 8,-6 8,-8 3,-4 3,-4 3,-4 2,-4 2,-5 2,-5 z" />
        </g>
        <g
           id="g48"
           style="fill:none">
          <path
             inkscape:connector-curvature="0"
             id="path50"
             d="m 3454,6093 -936,-361 c -97,34 -78,177 -78,177 l 146,51 c 0,0 204,319 566,194 0,0 269,48 302,-61 z" />
        </g>
        <g
           id="g52"
           style="fill:#606060">
          <path
             inkscape:connector-curvature="0"
             id="path54"
             d="m 3446,5971 c -311,-81 -622,-161 -933,-242 -12,44 -13,107 6,140 47,23 142,41 189,64 136,131 255,142 472,124 84,17 168,31 251,48 26,-51 33,-72 15,-134 z" />
        </g>
        <g
           id="g56"
           style="fill:none">
          <path
             inkscape:connector-curvature="0"
             id="path58"
             d="m 3446,5971 c -311,-81 -622,-161 -933,-242 -12,44 -13,107 6,140 47,23 142,41 189,64 136,131 255,142 472,124 84,17 168,31 251,48 26,-51 33,-72 15,-134 z" />
        </g>
        <g
           id="g60"
           style="fill:#ffffff;fill-opacity:0.4;stroke:#ffffff;stroke-opacity:0.4">
          <path
             inkscape:connector-curvature="0"
             id="path62"
             d="m 5856,2414 -1813,1017 7,4549 1775,-1494 31,-4072 z" />
        </g>
        <g
           id="g66"
           style="fill:none">
          <path
             inkscape:connector-curvature="0"
             id="path68"
             d="m 5856,2414 -1813,1017 7,4549 1775,-1494 31,-4072 z" />
        </g>
        <g
           id="g70"
           style="fill:#000000;fill-opacity:0.16078001;stroke:#ffffff;stroke-opacity:0.16078001">
          <path
             inkscape:connector-curvature="0"
             id="path72"
             d="m 2525,6916 10,13 11,12 10,13 11,11 11,12 11,11 12,11 12,10 12,10 12,10 13,10 12,9 13,9 13,8 27,17 28,15 28,14 28,13 29,11 29,11 30,9 30,8 29,8 30,6 30,5 30,4 30,3 30,2 29,2 29,0 29,-1 27,-2 28,-2 27,-3 26,-5 25,-5 24,-6 24,-6 22,-8 -2,-1 -4,0 -4,-2 -5,-1 -6,-2 -8,-2 -8,-2 -9,-2 -10,-3 -10,-3 -11,-3 -12,-3 -13,-4 -13,-3 -14,-4 -15,-4 -15,-4 -15,-5 -16,-4 -16,-5 -17,-4 -18,-5 -35,-10 -36,-10 -38,-10 -38,-10 -38,-11 -76,-21 -37,-10 -37,-11 -36,-10 -17,-4 -17,-5 -17,-5 -16,-4 -16,-5 -15,-4 -15,-4 -14,-4 -14,-4 -13,-4 -12,-3 -11,-3 -12,-3 -10,-3 -9,-3 -8,-2 -8,-3 -7,-1 -6,-2 -5,-2 -4,-1 -3,-1 z" />
        </g>
        <g
           id="g76"
           style="fill:none">
          <path
             inkscape:connector-curvature="0"
             id="path78"
             d="m 2525,6916 c 209,276 627,323 861,239 -39,-10 -810,-222 -861,-239 z" />
        </g>
        <g
           id="g80"
           style="fill:#000000;fill-opacity:0.16078001;stroke:#ffffff;stroke-opacity:0.16078001">
          <path
             inkscape:connector-curvature="0"
             id="path82"
             d="m 2680,7199 12,15 12,14 13,14 14,12 14,13 14,11 15,11 16,11 15,9 17,9 16,9 17,7 18,7 17,7 18,5 18,5 18,5 19,3 18,4 19,2 18,2 19,1 19,0 19,0 18,-1 19,-2 18,-2 19,-3 18,-4 18,-4 18,-5 17,-6 -1,0 -2,-1 -3,0 -4,-1 -3,-1 -5,-2 -5,-1 -6,-2 -6,-1 -6,-2 -7,-2 -8,-2 -8,-2 -8,-3 -9,-2 -9,-2 -19,-6 -20,-5 -22,-6 -22,-6 -23,-6 -23,-7 -48,-13 -48,-13 -23,-7 -23,-6 -23,-6 -21,-6 -21,-6 -19,-6 -9,-2 -9,-3 -9,-2 -8,-2 -8,-2 -7,-2 -7,-2 -6,-2 -6,-2 -5,-2 -5,-1 -5,-1 -3,-1 -3,-1 -3,-1 -2,0 z" />
        </g>
        <g
           id="g86"
           style="fill:none">
          <path
             inkscape:connector-curvature="0"
             id="path88"
             d="m 2680,7199 c 121,163 355,213 540,149 -25,-6 -507,-139 -540,-149 z" />
        </g>
        <g
           id="g90"
           style="fill:#fcfcfc;fill-opacity:0.43921999;stroke:#ffffff;stroke-opacity:0.43921999">
          <path
             inkscape:connector-curvature="0"
             id="path92"
             d="m 2356,3259 -92,13 -17,2173 1425,399 35,-116 -1369,-365 18,-2104 z" />
        </g>
        <g
           id="g96"
           style="fill:none">
          <path
             inkscape:connector-curvature="0"
             id="path98"
             d="m 2356,3259 -92,13 -17,2173 1425,399 35,-116 -1369,-365 18,-2104 z" />
        </g>
        <g
           id="g100"
           style="fill:#000000;fill-opacity:0.23136998;stroke:#ffffff;stroke-opacity:0.23136998">
          <path
             inkscape:connector-curvature="0"
             id="path102"
             d="m 3700,4065 -2,61 -1340,-386 1342,325 z" />
        </g>
        <g
           id="g106"
           style="fill:#000000;fill-opacity:0.23136998;stroke:#ffffff;stroke-opacity:0.23136998">
          <path
             inkscape:connector-curvature="0"
             id="path108"
             d="m 3720,4507 -3,61 -1339,-386 1342,325 z" />
        </g>
        <g
           id="g112"
           style="fill:#000000;fill-opacity:0.23136998;stroke:#ffffff;stroke-opacity:0.23136998">
          <path
             inkscape:connector-curvature="0"
             id="path114"
             d="m 3700,4916 -2,61 -1340,-386 1342,325 z" />
        </g>
        <g
           id="g118"
           style="fill:#000000;fill-opacity:0.23136998;stroke:#ffffff;stroke-opacity:0.23136998">
          <path
             inkscape:connector-curvature="0"
             id="path120"
             d="m 3700,5318 -2,61 -1340,-387 1342,326 z" />
        </g>
        <g
           id="g124"
           style="fill:#9e9e9e">
          <path
             inkscape:connector-curvature="0"
             id="path126"
             d="m 2361,3309 1332,333 -11,2197 11,0 11,0 11,-2205 0,-9 -8,-2 -1341,-335 -2,11 -3,10 z m 1340,335 -8,-2 0,-8 11,0 -3,10 z" />
        </g>
      </g>
    </g>
    <path
       style="fill:#b3b3b3;fill-rule:evenodd;stroke:none;stroke-width:1px;stroke-linecap:butt;stroke-linejoin:miter;stroke-opacity:1"
       d="m 594.79602,679.43207 c 5.37342,-0.78613 10.74529,-1.59906 16.1139,-2.43277 -1.04646,-11.23671 -2.35433,-20.49721 -2.8382,-30.17268 -0.46423,-9.2828 -0.013,-17.20755 2.00843,-23.98367 1.99189,-6.6772 5.69814,-12.90907 13.01204,-18.41177 7.51516,-5.65414 19.16899,-10.76787 37.23097,-14.09965 12.56955,-2.4594 29.05859,-5.17011 46.3531,-8.2909 17.17435,-3.09911 35.03829,-6.58587 49.93108,-10.52903 7.40972,-1.96187 14.32439,-4.09866 20.00372,-6.37829 5.54756,-2.22674 10.60566,-4.85664 14.02544,-8.02736 1.7352,-1.60882 3.45413,-3.72897 4.29917,-6.37106 0.8952,-2.79888 0.63751,-5.67185 -0.6419,-8.25022 -1.19105,-2.40028 -3.12724,-4.27639 -5.22927,-5.80982 -2.14231,-1.56282 -4.77254,-2.99575 -7.86645,-4.37311 -29.49118,-13.81855 -71.50577,-21.72451 -118.28995,-25.82771 -46.93034,-4.11602 -99.3314,-4.45601 -149.81294,-2.8233 -50.51297,1.63374 -99.28001,5.24788 -139.03232,9.06834 -39.76625,3.82179 -70.5799,7.85584 -85.15921,10.32318 14.7238,-1.57383 45.55454,-4.69757 85.36801,-7.61522 39.82119,-2.91823 88.52947,-5.62344 138.95043,-6.35015 50.44868,-0.7271 102.4327,0.52881 148.87682,5.50774 46.57961,4.99345 86.95762,13.67302 114.35832,27.48243 2.54241,1.36084 4.32662,2.59823 5.43587,3.62751 1.1007,1.02134 1.40078,1.74664 1.24559,1.76012 -0.23347,0.0203 -0.333,-0.75953 -0.34085,-1.0957 -0.008,-0.34547 -0.0709,-0.17368 -0.91994,0.38325 -1.85334,1.2157 -5.01595,2.67482 -10.35868,4.34145 -5.12435,1.59851 -11.34926,3.10845 -18.61733,4.57225 -14.45808,2.91187 -31.89049,5.41463 -49.10516,7.60415 -18.05557,2.29646 -33.00669,3.91391 -46.88095,5.62997 -20.08197,2.73633 -35.7185,7.81302 -47.64182,15.38987 -12.14594,7.71831 -19.9546,17.73473 -24.66251,29.19155 -4.47733,10.8957 -5.89753,22.48137 -6.31109,33.42901 -0.4016,10.63124 0.14949,22.2444 0.22313,31.78734 5.42375,0.22602 10.84885,0.47228 16.27255,0.74425 z"
       id="path23980"
       inkscape:path-effect="#path-effect23982"
       inkscape:original-d="m 594.79602,679.43207 c -2.02031,-42.42641 -12.45479,-87.69945 63.82344,-99.82128 50.92569,-8.0929 165.36531,-20.5037 120.20816,-42.4264 -113.80754,-55.2508 -431.33514,-22.22337 -489.92399,-14.14214"
       inkscape:connector-curvature="0"
       sodipodi:nodetypes="cssc" />
    <g
       id="g23921"
       transform="translate(255.71428,28.41043)">
      <rect
         inkscape:export-ydpi="150"
         inkscape:export-xdpi="150"
         inkscape:export-filename="C:\Users\jerome\Dropbox\adn\presentations\naviguer\assets\serveur.png"
         ry="12.723812"
         rx="0.66083711"
         y="603.73193"
         x="306.30869"
         height="12.723812"
         width="64.168205"
         id="rect22312"
         style="fill:#4d4d4d;fill-rule:evenodd;stroke:#000000;stroke-width:0.84598118px;stroke-linecap:butt;stroke-linejoin:miter;stroke-opacity:1" />
      <path
         inkscape:export-ydpi="150"
         inkscape:export-xdpi="150"
         inkscape:export-filename="C:\Users\jerome\Dropbox\adn\presentations\naviguer\assets\serveur.png"
         inkscape:connector-curvature="0"
         id="path4896-8"
         d="m 520.15403,411.24696 -17.98753,-92.79717 -7.18275,2.96569 8.7932,92.78054 18.79089,-3.816"
         style="fill:#000000;fill-rule:evenodd;stroke:none" />
      <path
         inkscape:export-ydpi="150"
         inkscape:export-xdpi="150"
         inkscape:export-filename="C:\Users\jerome\Dropbox\adn\presentations\naviguer\assets\serveur.png"
         sodipodi:nodetypes="ccccc"
         inkscape:connector-curvature="0"
         id="path4892"
         d="m 399.67099,438.06115 108.80676,-29.29596 9.54273,12.10467 -97.29166,46.09942 z"
         style="fill:#000000;fill-rule:evenodd;stroke:none" />
      <path
         inkscape:export-ydpi="150"
         inkscape:export-xdpi="150"
         inkscape:export-filename="C:\Users\jerome\Dropbox\adn\presentations\naviguer\assets\serveur.png"
         sodipodi:nodetypes="ccccc"
         inkscape:connector-curvature="0"
         id="path4888"
         d="m 242.9195,446.37305 c -2.85715,5.71429 -43.0602,95.57071 -43.0602,95.57071 l 11.42858,7.14286 66.85569,-84.04061 z"
         style="fill:#000000;fill-rule:evenodd;stroke:none" />
      <circle
         inkscape:export-ydpi="150"
         inkscape:export-xdpi="150"
         inkscape:export-filename="C:\Users\jerome\Dropbox\adn\presentations\naviguer\assets\serveur.png"
         r="34.285713"
         cy="457.65805"
         cx="258.43073"
         id="path4298"
         style="fill:#ff6600;fill-rule:evenodd;stroke:#000000;stroke-width:5;stroke-linecap:butt;stroke-linejoin:miter;stroke-miterlimit:4;stroke-dasharray:none;stroke-opacity:1" />
      <circle
         inkscape:export-ydpi="150"
         inkscape:export-xdpi="150"
         inkscape:export-filename="C:\Users\jerome\Dropbox\adn\presentations\naviguer\assets\serveur.png"
         r="21.613375"
         cy="417.99237"
         cx="513.07251"
         id="path4298-2-4"
         style="fill:#ff6600;fill-rule:evenodd;stroke:#000000;stroke-width:5;stroke-linecap:butt;stroke-linejoin:miter;stroke-miterlimit:4;stroke-dasharray:none;stroke-opacity:1" />
      <path
         inkscape:export-ydpi="150"
         inkscape:export-xdpi="150"
         inkscape:export-filename="C:\Users\jerome\Dropbox\adn\presentations\naviguer\assets\serveur.png"
         inkscape:connector-curvature="0"
         id="rect4340"
         d="m 271.86365,300.82776 126.05341,0 c 15.04586,0 26.56601,9.63675 25.82996,21.60705 l -3.85915,62.7608 c -0.73605,11.9703 -13.44133,21.60705 -28.48719,21.60705 l -126.05341,0 c -15.04585,0 -26.56602,-9.63675 -25.82997,-21.60705 l 3.85915,-62.7608 c 0.73605,-11.9703 13.44135,-21.60705 28.4872,-21.60705 z"
         style="fill:#ff6600;fill-rule:evenodd;stroke:#000000;stroke-width:4;stroke-linecap:butt;stroke-linejoin:miter;stroke-miterlimit:4;stroke-dasharray:none;stroke-opacity:1" />
      <ellipse
         inkscape:export-ydpi="150"
         inkscape:export-xdpi="150"
         inkscape:export-filename="C:\Users\jerome\Dropbox\adn\presentations\naviguer\assets\serveur.png"
         ry="19.870291"
         rx="19.524651"
         cy="324.48285"
         cx="359.39453"
         id="path4342"
         style="fill:#ffffff;fill-rule:evenodd;stroke:#000000;stroke-width:3;stroke-linecap:butt;stroke-linejoin:miter;stroke-miterlimit:4;stroke-dasharray:none;stroke-opacity:1" />
      <ellipse
         inkscape:export-ydpi="150"
         inkscape:export-xdpi="150"
         inkscape:export-filename="C:\Users\jerome\Dropbox\adn\presentations\naviguer\assets\serveur.png"
         ry="28.630938"
         rx="28.132906"
         cy="319.75183"
         cx="293.38263"
         id="path4298-2-5"
         style="fill:#ffffff;fill-rule:evenodd;stroke:#000000;stroke-width:3;stroke-linecap:butt;stroke-linejoin:miter;stroke-miterlimit:4;stroke-dasharray:none;stroke-opacity:1" />
      <path
         inkscape:export-ydpi="150"
         inkscape:export-xdpi="150"
         inkscape:export-filename="C:\Users\jerome\Dropbox\adn\presentations\naviguer\assets\serveur.png"
         style="fill:#000000;stroke:none"
         d="m 314.82305,378.67711 c 0,0 30.56584,0.52945 41.57935,-14.63557 -1.1364,-4.78574 -12.99654,-15.47664 -12.99654,-15.47664 0,0 19.80245,0.77243 26.57302,18.84521 5.35719,14.29998 -7.45338,26.75281 -7.45338,26.75281 0,0 2.47911,-12.96022 -0.31014,-17.68648 -23.06818,16.79522 -47.39231,2.20067 -47.39231,2.20067 z"
         id="path6415"
         inkscape:connector-curvature="0"
         sodipodi:nodetypes="cccsccc" />
      <circle
         inkscape:export-ydpi="150"
         inkscape:export-xdpi="150"
         inkscape:export-filename="C:\Users\jerome\Dropbox\adn\presentations\naviguer\assets\serveur.png"
         r="13.011856"
         cy="319.16476"
         cx="498.41129"
         id="path4298-2-4-8"
         style="fill:#ff6600;fill-rule:evenodd;stroke:#000000;stroke-width:3.0101397;stroke-linecap:butt;stroke-linejoin:miter;stroke-miterlimit:4;stroke-dasharray:none;stroke-opacity:1" />
      <path
         inkscape:export-ydpi="150"
         inkscape:export-xdpi="150"
         inkscape:export-filename="C:\Users\jerome\Dropbox\adn\presentations\naviguer\assets\serveur.png"
         sodipodi:nodetypes="csscssssscscssc"
         inkscape:connector-curvature="0"
         id="path3337"
         d="m 489.41256,321.78349 c -8.11155,-5.49124 -15.54411,-11.09401 -15.25441,-14.11419 0.2897,-3.02019 -4.34547,-11.53162 -10.42913,-13.45356 -6.08366,-1.92194 -18.83038,-2.74563 -18.83038,-2.74563 0,0 0,-10.1588 4.63517,-12.90443 4.63517,-2.74562 20.56857,-2.47106 25.78313,1.09825 5.21457,3.56931 6.46841,12.73323 17.76664,12.73323 11.29822,0 13.79053,-2.51866 25.37846,-6.91166 11.58792,-4.393 24.06486,-7.74351 28.70003,-7.19438 4.63517,0.54912 10.71883,2.47106 10.71883,2.47106 0,0 6.08366,1.92194 6.08366,4.11844 0,2.1965 -1.44849,8.51143 -1.44849,8.51143 0,0 -8.11155,-0.54912 -19.12008,3.29475 -11.00852,3.84387 -22.51521,19.87743 -27.52131,21.90922 -12.93094,5.24821 -15.74329,6.75678 -26.46212,3.18747 z"
         style="color:#000000;clip-rule:nonzero;display:inline;overflow:visible;visibility:visible;opacity:1;isolation:auto;mix-blend-mode:normal;color-interpolation:sRGB;color-interpolation-filters:linearRGB;solid-color:#000000;solid-opacity:1;fill:#ffffff;fill-opacity:1;fill-rule:nonzero;stroke:#000000;stroke-width:4;stroke-linecap:butt;stroke-linejoin:miter;stroke-miterlimit:4;stroke-dasharray:none;stroke-dashoffset:0;stroke-opacity:1;marker:none;color-rendering:auto;image-rendering:auto;shape-rendering:auto;text-rendering:auto;enable-background:accumulate" />
      <path
         inkscape:export-ydpi="150"
         inkscape:export-xdpi="150"
         inkscape:export-filename="C:\Users\jerome\Dropbox\adn\presentations\naviguer\assets\serveur.png"
         inkscape:connector-curvature="0"
         id="path17652"
         d="m 322.36707,571.05727 26.23813,0 c 2.48175,0 4.62282,3.02565 4.8006,6.78396 l 3.25501,68.80886 c 0.17779,3.75832 -1.67702,6.78397 -4.15875,6.78397 l -26.23816,0 c -2.48174,0 -4.6228,-3.02565 -4.8006,-6.78397 l -3.25501,-68.80886 c -0.17779,-3.75831 1.67702,-6.78396 4.15878,-6.78396 z"
         style="fill:url(#linearGradient23786);fill-opacity:1;fill-rule:evenodd;stroke:#020202;stroke-width:2.5379436;stroke-linecap:butt;stroke-linejoin:miter;stroke-miterlimit:4;stroke-dasharray:none;stroke-opacity:1" />
      <circle
         inkscape:export-ydpi="150"
         inkscape:export-xdpi="150"
         inkscape:export-filename="C:\Users\jerome\Dropbox\adn\presentations\naviguer\assets\serveur.png"
         r="34.285713"
         cy="454.08664"
         cx="404.71646"
         id="path4298-0"
         style="fill:#ff6600;fill-rule:evenodd;stroke:#000000;stroke-width:5;stroke-linecap:butt;stroke-linejoin:miter;stroke-miterlimit:4;stroke-dasharray:none;stroke-opacity:1" />
      <path
         inkscape:export-ydpi="150"
         inkscape:export-xdpi="150"
         inkscape:export-filename="C:\Users\jerome\Dropbox\adn\presentations\naviguer\assets\serveur.png"
         sodipodi:nodetypes="sssscsssscsssss"
         inkscape:connector-curvature="0"
         id="rect4296-1"
         d="m 271.07068,421.2068 c -3.45295,0 -6.39188,4.39589 -5.78626,9.70084 l 20.8863,182.95174 c 0.60562,5.30494 3.22631,9.70083 6.67926,9.70083 l 21.38614,0 -2.2967,-49.89869 c -0.24737,-5.37426 2.33331,-9.70083 5.78625,-9.70083 l 36.50057,0 c 3.45296,0 6.4319,4.32657 6.67927,9.70083 l 2.29671,49.89869 21.36667,0 c 3.45294,0 5.6672,-4.31598 5.78624,-9.70083 l 4.04474,-182.95174 c 0.11905,-5.38485 -3.22631,-9.70084 -6.67927,-9.70084 z"
         style="fill:#ff6600;fill-rule:evenodd;stroke:#000000;stroke-width:3.88789701;stroke-linecap:butt;stroke-linejoin:miter;stroke-miterlimit:4;stroke-dasharray:none;stroke-opacity:1" />
      <path
         inkscape:export-ydpi="150"
         inkscape:export-xdpi="150"
         inkscape:export-filename="C:\Users\jerome\Dropbox\adn\presentations\naviguer\assets\serveur.png"
         inkscape:connector-curvature="0"
         inkscape:original-d="m 333.35347,300.79693 c 0,0 -5.76629,-39.64016 16.44318,-64.36526"
         inkscape:path-effect="#path-effect4997"
         id="path4995"
         d="m 328.39837,301.46552 9.91019,-1.33722 c 0,0 -0.006,-0.0255 -0.006,-0.0256 -0.006,-0.0245 -0.0112,-0.0492 -0.0167,-0.0741 -0.0216,-0.097 -0.0428,-0.19699 -0.064,-0.29996 l -1e-5,-10e-6 c -0.0799,-0.38277 -0.15509,-0.777 -0.22818,-1.1817 l 0,-10e-6 c -0.2698,-1.49378 -0.49307,-3.01527 -0.68436,-4.55766 0,0 0,0 0,0 -0.64369,-5.20295 -0.90315,-10.48302 -0.75945,-15.77985 0,0 0,0 0,0 0.19405,-6.96438 1.07641,-13.93973 2.9535,-20.70885 2.08142,-7.49714 5.41272,-14.76513 10.29319,-21.06893 -5.74601,5.52632 -10.28407,12.42028 -13.5781,19.88906 -2.97106,6.72875 -4.99936,13.9072 -6.27215,21.20977 0,0 0,10e-6 0,10e-6 -0.97128,5.54773 -1.52672,11.19634 -1.65824,16.88309 0,0 0,0 0,0 -0.0395,1.68549 -0.0401,3.38896 0.0142,5.11032 l 0,0 c 0.0147,0.46609 0.0346,0.94194 0.0625,1.4277 l 0,1e-5 c 0.007,0.1234 0.0146,0.24966 0.0236,0.37875 0.002,0.0332 0.005,0.0665 0.007,0.10003 0,-10e-6 0.003,0.0351 0.003,0.0351 z"
         style="fill:#000000;fill-rule:evenodd;stroke:none" />
      <circle
         inkscape:export-ydpi="150"
         inkscape:export-xdpi="150"
         inkscape:export-filename="C:\Users\jerome\Dropbox\adn\presentations\naviguer\assets\serveur.png"
         r="5"
         cy="238.96408"
         cx="347.69614"
         id="path4999"
         style="fill:#ff6600;fill-rule:evenodd;stroke:#000000;stroke-width:1px;stroke-linecap:butt;stroke-linejoin:miter;stroke-opacity:1" />
      <path
         inkscape:export-ydpi="150"
         inkscape:export-xdpi="150"
         inkscape:export-filename="C:\Users\jerome\Dropbox\adn\presentations\naviguer\assets\serveur.png"
         sodipodi:nodetypes="cscsc"
         inkscape:connector-curvature="0"
         id="path23788"
         d="m 520.89866,313.6281 c 0,0 1.82994,-20.52866 3.77281,-23.78926 1.94288,-3.26061 3.26126,-7.69866 3.26126,-7.69866 0,0 -14.1253,-5.13155 -15.51307,8.63546 -0.5725,5.67935 -8.96347,17.48116 -8.96347,17.48116"
         style="color:#000000;clip-rule:nonzero;display:inline;overflow:visible;visibility:visible;opacity:1;isolation:auto;mix-blend-mode:normal;color-interpolation:sRGB;color-interpolation-filters:linearRGB;solid-color:#000000;solid-opacity:1;fill:#ffffff;fill-opacity:1;fill-rule:nonzero;stroke:#000000;stroke-width:3.55156255;stroke-linecap:round;stroke-linejoin:miter;stroke-miterlimit:4;stroke-dasharray:none;stroke-dashoffset:0;stroke-opacity:1;marker:none;color-rendering:auto;image-rendering:auto;shape-rendering:auto;text-rendering:auto;enable-background:accumulate" />
      <g
         inkscape:export-ydpi="150"
         inkscape:export-xdpi="150"
         inkscape:export-filename="C:\Users\jerome\Dropbox\adn\presentations\naviguer\assets\serveur.png"
         transform="translate(-6.3134539,48.487323)"
         id="g22217">
        <ellipse
           style="fill:#ffffff;fill-rule:evenodd;stroke:#000000;stroke-width:2.7879982;stroke-linecap:butt;stroke-linejoin:miter;stroke-miterlimit:4;stroke-dasharray:none;stroke-opacity:1"
           id="path8332-3"
           cx="515.55658"
           cy="229.02695"
           rx="101.08141"
           ry="7.2326818" />
        <ellipse
           style="fill:#ffffff;fill-rule:evenodd;stroke:#000000;stroke-width:3;stroke-linecap:butt;stroke-linejoin:miter;stroke-miterlimit:4;stroke-dasharray:none;stroke-opacity:1"
           id="path8332"
           cx="515.55658"
           cy="225.01012"
           rx="118.77934"
           ry="7.1266809" />
      </g>
      <path
         inkscape:export-ydpi="150"
         inkscape:export-xdpi="150"
         inkscape:export-filename="C:\Users\jerome\Dropbox\adn\presentations\naviguer\assets\serveur.png"
         inkscape:connector-curvature="0"
         id="path17615"
         d="m 303.50071,309.80145 a 13.928658,13.928658 0 0 0 -5.58597,1.18702 6.3839684,6.3839684 0 0 1 2.68508,5.19558 6.3839684,6.3839684 0 0 1 -6.38262,6.38578 6.3839684,6.3839684 0 0 1 -4.34181,-1.71388 13.928658,13.928658 0 0 0 -0.30152,2.87234 13.928658,13.928658 0 0 0 13.92684,13.93002 13.928658,13.928658 0 0 0 13.93002,-13.93002 13.928658,13.928658 0 0 0 -13.93002,-13.92684 z"
         style="fill:#000000;fill-opacity:1;fill-rule:evenodd;stroke:none;stroke-width:1px;stroke-linecap:butt;stroke-linejoin:miter;stroke-opacity:1" />
      <path
         inkscape:export-ydpi="150"
         inkscape:export-xdpi="150"
         inkscape:export-filename="C:\Users\jerome\Dropbox\adn\presentations\naviguer\assets\serveur.png"
         id="path17615-6"
         d="m 363.57208,311.22961 a 13.21436,13.21436 0 0 0 -5.29951,1.12615 6.0565821,6.0565821 0 0 1 2.54739,4.92914 6.0565821,6.0565821 0 0 1 -6.0553,6.0583 6.0565821,6.0565821 0 0 1 -4.11916,-1.62599 13.21436,13.21436 0 0 0 -0.28606,2.72504 13.21436,13.21436 0 0 0 13.21264,13.21566 13.21436,13.21436 0 0 0 13.21566,-13.21566 13.21436,13.21436 0 0 0 -13.21566,-13.21264 z"
         style="fill:#000000;fill-opacity:1;fill-rule:evenodd;stroke:none;stroke-width:3;stroke-linecap:butt;stroke-linejoin:miter;stroke-miterlimit:4;stroke-dasharray:none;stroke-opacity:1"
         inkscape:connector-curvature="0" />
      <path
         inkscape:export-ydpi="150"
         inkscape:export-xdpi="150"
         inkscape:export-filename="C:\Users\jerome\Dropbox\adn\presentations\naviguer\assets\serveur.png"
         sodipodi:nodetypes="cssssc"
         inkscape:connector-curvature="0"
         id="path17696"
         d="m 290.59017,545.01307 c 0.50508,1.51523 -1.26269,21.97081 0.50508,30.05203 1.76776,8.08122 2.77792,16.92006 -0.50508,19.95051 -3.28299,3.03046 -16.16244,3.283 -18.18274,-7.07106 -2.02031,-10.35407 -10.35407,-39.39595 -6.06092,-41.16372 4.29315,-1.76777 24.24366,-1.76776 24.24366,-1.76776 z"
         style="color:#000000;clip-rule:nonzero;display:inline;overflow:visible;visibility:visible;opacity:1;isolation:auto;mix-blend-mode:normal;color-interpolation:sRGB;color-interpolation-filters:linearRGB;solid-color:#000000;solid-opacity:1;fill:#b3b3b3;fill-opacity:1;fill-rule:nonzero;stroke:#000000;stroke-width:4;stroke-linecap:butt;stroke-linejoin:miter;stroke-miterlimit:4;stroke-dasharray:none;stroke-dashoffset:0;stroke-opacity:1;color-rendering:auto;image-rendering:auto;shape-rendering:auto;text-rendering:auto;enable-background:accumulate" />
      <path
         inkscape:export-ydpi="150"
         inkscape:export-xdpi="150"
         inkscape:export-filename="C:\Users\jerome\Dropbox\adn\presentations\naviguer\assets\serveur.png"
         inkscape:connector-curvature="0"
         id="path4896"
         d="m 201.94929,550.82144 129.29952,-3.03046 -2.0203,-7.57614 -126.77415,-6.06092 0,19.1929"
         style="fill:#000000;fill-rule:evenodd;stroke:none" />
      <path
         inkscape:export-ydpi="150"
         inkscape:export-xdpi="150"
         inkscape:export-filename="C:\Users\jerome\Dropbox\adn\presentations\naviguer\assets\serveur.png"
         sodipodi:nodetypes="cssssscc"
         inkscape:connector-curvature="0"
         id="path4962"
         d="m 324.05147,559.28147 c -7.61935,-6.34851 -7.51369,-30.68172 2.9042,-32.70368 8.81778,-1.71141 7.69426,2.3774 8.83882,1.64149 16.53436,-10.63097 38.34235,4.83758 44.9518,18.05647 2.1657,4.33142 19.54379,25.07837 8.08122,30.80966 -16.61755,8.30877 -24.19892,-10.07916 -33.33503,-14.64722 -7.29766,-3.64882 -14.35188,-8.84359 -21.21321,-8.08122 -1.4598,2.5531 -4.42936,4.54072 -10.2278,4.9245 z"
         style="fill:#ffffff;stroke:#000000;stroke-width:4;stroke-linecap:butt;stroke-linejoin:miter;stroke-miterlimit:4;stroke-dasharray:none;stroke-opacity:1" />
      <path
         inkscape:export-ydpi="150"
         inkscape:export-xdpi="150"
         inkscape:export-filename="C:\Users\jerome\Dropbox\adn\presentations\naviguer\assets\serveur.png"
         sodipodi:nodetypes="cssssssc"
         inkscape:connector-curvature="0"
         id="path17674"
         d="m 241.34523,527.08286 c 7.54953,-1.64509 15.49222,-1.01016 23.23351,-1.01016 9.41242,0 24.63831,1.30327 25.2792,11.54061 0.19037,3.04084 -8.8801,-2.36871 -11.41498,4.03754 -2.3334,5.89706 -2.20855,15.67553 0.50507,30.02666 3.97557,21.02498 1.65774,45.49287 -5.27791,46.31908 -16.41822,1.95583 -42.28295,0.75981 -40.08203,-6.63912 11.64802,-39.15761 -9.69562,-75.54823 7.75714,-84.27461 z"
         style="color:#000000;clip-rule:nonzero;display:inline;overflow:visible;visibility:visible;opacity:1;isolation:auto;mix-blend-mode:normal;color-interpolation:sRGB;color-interpolation-filters:linearRGB;solid-color:#000000;solid-opacity:1;fill:#ffffff;fill-opacity:1;fill-rule:nonzero;stroke:#000000;stroke-width:4;stroke-linecap:butt;stroke-linejoin:miter;stroke-miterlimit:4;stroke-dasharray:none;stroke-dashoffset:0;stroke-opacity:1;color-rendering:auto;image-rendering:auto;shape-rendering:auto;text-rendering:auto;enable-background:accumulate" />
      <circle
         inkscape:export-ydpi="150"
         inkscape:export-xdpi="150"
         inkscape:export-filename="C:\Users\jerome\Dropbox\adn\presentations\naviguer\assets\serveur.png"
         r="21.613375"
         cy="541.94373"
         cx="205.57359"
         id="path4298-2"
         style="fill:#ff6600;fill-rule:evenodd;stroke:#000000;stroke-width:5;stroke-linecap:butt;stroke-linejoin:miter;stroke-miterlimit:4;stroke-dasharray:none;stroke-opacity:1" />
      <g
         inkscape:export-ydpi="150"
         inkscape:export-xdpi="150"
         inkscape:export-filename="C:\Users\jerome\Dropbox\adn\presentations\naviguer\assets\serveur.png"
         id="g22263-6"
         transform="translate(-21.213208,50.487318)">
        <path
           inkscape:connector-curvature="0"
           id="path2826-0"
           sodipodi:nodetypes="cccccc"
           style="fill:url(#linearGradient22306);fill-rule:evenodd;stroke:#020202;stroke-width:3;stroke-linejoin:round;stroke-miterlimit:4;stroke-dasharray:none;stroke-opacity:1"
           d="m 543.78948,110.97871 -60,0 0,115 85,0 0,-90 -25,-25 z" />
        <path
           inkscape:connector-curvature="0"
           id="rect2822-2"
           sodipodi:nodetypes="cccc"
           style="fill:url(#linearGradient22308);fill-rule:evenodd;stroke:#020202;stroke-width:3;stroke-linejoin:round;stroke-miterlimit:4;stroke-dasharray:none;stroke-opacity:1"
           d="m 568.78948,135.97871 -25,-25 c 1.8633,8.3333 2.1329,16.667 0,25 9.9055,-1.935 17.128,-0.56751 25,0 z" />
      </g>
    </g>
    <path
       style="fill:#000000;fill-rule:evenodd;stroke:none;stroke-width:1px;stroke-linecap:butt;stroke-linejoin:miter;stroke-opacity:1"
       d="m 276.7818,574.56003 2.0203,-233.34524 97.9848,-59.599 -2.02031,211.12188 z"
       id="path23958"
       inkscape:connector-curvature="0"
       sodipodi:nodetypes="ccccc" />
    <text
       xml:space="preserve"
       style="font-style:normal;font-variant:normal;font-weight:normal;font-stretch:normal;font-size:34.36952209px;line-height:125%;font-family:'Roboto Slab';-inkscape-font-specification:'Roboto Slab';text-align:center;letter-spacing:0px;word-spacing:0px;text-anchor:middle;fill:#000000;fill-opacity:1;stroke:none;stroke-width:1px;stroke-linecap:butt;stroke-linejoin:miter;stroke-opacity:1"
       x="373.27679"
       y="366.00195"
       id="text23970"
       sodipodi:linespacing="125%"
       transform="matrix(0.85923807,-0.50572394,0,1.1638218,0,0)"><tspan
         sodipodi:role="line"
         x="373.27679"
         y="366.00195"
         id="tspan23974">Reservé au</tspan><tspan
         sodipodi:role="line"
         x="373.27679"
         y="408.96387"
         id="tspan23978">personnel</tspan></text>
  </g>
</svg>
